…
## # A tibble: 3 x 8
##   division perc_speeding perc_alcohol perc_not_distra… perc_no_previous
##   <chr>            <dbl>        <dbl>            <dbl>            <dbl>
## 1 East So…          23.5         28.2             66.5             84.2
## 2 South A…          30.7         30               91               91.3
## 3 West So…          31.2         31.5             87.5             93.5
## # … with 3 more variables: insurance_premiums <dbl>, losses <dbl>,
## #   num_drivers <dbl>

## # A tibble: 51 x 2
##    state          num_drivers_pct
##    <chr>                    <int>
##  1 South Carolina              99
##  2 North Dakota                97
##  3 West Virginia               95
##  4 Arkansas                    93
##  5 Montana                     91
##  6 Kentucky                    89
##  7 Louisiana                   87
##  8 Oklahoma                    85
##  9 Tennessee                   83
## 10 Texas                       81
## # … with 41 more rows
…
